{
  "formatVersion": 1,
  "database": {
    "version": 1,
    "identityHash": "1aa538587828daa5ae860a845c7d701b",
    "entities": [
      {
        "tableName": "packs",
        "createSql": "CREATE TABLE IF NOT EXISTS `${TABLE_NAME}` (`gameId` TEXT NOT NULL, `name` TEXT NOT NULL, PRIMARY KEY(`gameId`))",
        "fields": [
          {
            "fieldPath": "gameId",
            "columnName": "gameId",
            "affinity": "TEXT",
            "notNull": true
          },
          {
            "fieldPath": "name",
            "columnName": "name",
            "affinity": "TEXT",
            "notNull": true
          }
        ],
        "primaryKey": {
          "autoGenerate": false,
          "columnNames": [
            "gameId"
          ]
        },
        "indices": [],
        "foreignKeys": []
      },
      {
        "tableName": "rounds",
        "createSql": "CREATE TABLE IF NOT EXISTS `${TABLE_NAME}` (`id` TEXT NOT NULL, `gameId` TEXT NOT NULL, `name` TEXT NOT NULL, `number` INTEGER NOT NULL, PRIMARY KEY(`id`))",
        "fields": [
          {
            "fieldPath": "id",
            "columnName": "id",
            "affinity": "TEXT",
            "notNull": true
          },
          {
            "fieldPath": "gameId",
            "columnName": "gameId",
            "affinity": "TEXT",
            "notNull": true
          },
          {
            "fieldPath": "name",
            "columnName": "name",
            "affinity": "TEXT",
            "notNull": true
          },
          {
            "fieldPath": "number",
            "columnName": "number",
            "affinity": "INTEGER",
            "notNull": true
          }
        ],
        "primaryKey": {
          "autoGenerate": false,
          "columnNames": [
            "id"
          ]
        },
        "indices": [],
        "foreignKeys": []
      },
      {
        "tableName": "themes",
        "createSql": "CREATE TABLE IF NOT EXISTS `${TABLE_NAME}` (`id` TEXT NOT NULL, `roundId` TEXT NOT NULL, `name` TEXT NOT NULL, PRIMARY KEY(`id`))",
        "fields": [
          {
            "fieldPath": "id",
            "columnName": "id",
            "affinity": "TEXT",
            "notNull": true
          },
          {
            "fieldPath": "roundId",
            "columnName": "roundId",
            "affinity": "TEXT",
            "notNull": true
          },
          {
            "fieldPath": "name",
            "columnName": "name",
            "affinity": "TEXT",
            "notNull": true
          }
        ],
        "primaryKey": {
          "autoGenerate": false,
          "columnNames": [
            "id"
          ]
        },
        "indices": [],
        "foreignKeys": []
      },
      {
        "tableName": "questions",
        "createSql": "CREATE TABLE IF NOT EXISTS `${TABLE_NAME}` (`id` TEXT NOT NULL, `themeId` TEXT NOT NULL, `price` INTEGER NOT NULL, `rightAnswer` TEXT NOT NULL, `type` TEXT NOT NULL, `isChecked` INTEGER NOT NULL, PRIMARY KEY(`id`))",
        "fields": [
          {
            "fieldPath": "id",
            "columnName": "id",
            "affinity": "TEXT",
            "notNull": true
          },
          {
            "fieldPath": "themeId",
            "columnName": "themeId",
            "affinity": "TEXT",
            "notNull": true
          },
          {
            "fieldPath": "price",
            "columnName": "price",
            "affinity": "INTEGER",
            "notNull": true
          },
          {
            "fieldPath": "rightAnswer",
            "columnName": "rightAnswer",
            "affinity": "TEXT",
            "notNull": true
          },
          {
            "fieldPath": "type",
            "columnName": "type",
            "affinity": "TEXT",
            "notNull": true
          },
          {
            "fieldPath": "isChecked",
            "columnName": "isChecked",
            "affinity": "INTEGER",
            "notNull": true
          }
        ],
        "primaryKey": {
          "autoGenerate": false,
          "columnNames": [
            "id"
          ]
        },
        "indices": [],
        "foreignKeys": []
      },
      {
        "tableName": "questions_content",
        "createSql": "CREATE TABLE IF NOT EXISTS `${TABLE_NAME}` (`questionId` TEXT NOT NULL, `type` TEXT NOT NULL, `value` TEXT NOT NULL, PRIMARY KEY(`questionId`, `type`))",
        "fields": [
          {
            "fieldPath": "questionId",
            "columnName": "questionId",
            "affinity": "TEXT",
            "notNull": true
          },
          {
            "fieldPath": "type",
            "columnName": "type",
            "affinity": "TEXT",
            "notNull": true
          },
          {
            "fieldPath": "value",
            "columnName": "value",
            "affinity": "TEXT",
            "notNull": true
          }
        ],
        "primaryKey": {
          "autoGenerate": false,
          "columnNames": [
            "questionId",
            "type"
          ]
        },
        "indices": [],
        "foreignKeys": []
      },
      {
        "tableName": "games",
        "createSql": "CREATE TABLE IF NOT EXISTS `${TABLE_NAME}` (`id` TEXT NOT NULL, `currentPlayerId` TEXT NOT NULL, `roundsCount` INTEGER NOT NULL, `currentRound` INTEGER NOT NULL, `maxPlayersCount` INTEGER NOT NULL, `currentQuestionId` TEXT, `currentRespondentId` TEXT, `lastQuestionId` TEXT, `isDisputeOpen` INTEGER, `currentDisputantId` TEXT, PRIMARY KEY(`id`))",
        "fields": [
          {
            "fieldPath": "id",
            "columnName": "id",
            "affinity": "TEXT",
            "notNull": true
          },
          {
            "fieldPath": "currentPlayerId",
            "columnName": "currentPlayerId",
            "affinity": "TEXT",
            "notNull": true
          },
          {
            "fieldPath": "roundsCount",
            "columnName": "roundsCount",
            "affinity": "INTEGER",
            "notNull": true
          },
          {
            "fieldPath": "currentRound",
            "columnName": "currentRound",
            "affinity": "INTEGER",
            "notNull": true
          },
          {
            "fieldPath": "maxPlayersCount",
            "columnName": "maxPlayersCount",
            "affinity": "INTEGER",
            "notNull": true
          },
          {
            "fieldPath": "currentQuestionId",
            "columnName": "currentQuestionId",
            "affinity": "TEXT",
            "notNull": false
          },
          {
            "fieldPath": "currentRespondentId",
            "columnName": "currentRespondentId",
            "affinity": "TEXT",
            "notNull": false
          },
          {
            "fieldPath": "lastQuestionId",
            "columnName": "lastQuestionId",
            "affinity": "TEXT",
            "notNull": false
          },
          {
            "fieldPath": "isDisputeOpen",
            "columnName": "isDisputeOpen",
            "affinity": "INTEGER",
            "notNull": false
          },
          {
            "fieldPath": "currentDisputantId",
            "columnName": "currentDisputantId",
            "affinity": "TEXT",
            "notNull": false
          }
        ],
        "primaryKey": {
          "autoGenerate": false,
          "columnNames": [
            "id"
          ]
        },
        "indices": [],
        "foreignKeys": []
      },
      {
        "tableName": "players",
        "createSql": "CREATE TABLE IF NOT EXISTS `${TABLE_NAME}` (`uuid` TEXT NOT NULL, `gameId` TEXT NOT NULL, `nickname` TEXT NOT NULL, `score` INTEGER NOT NULL, `isModerator` INTEGER NOT NULL, PRIMARY KEY(`uuid`))",
        "fields": [
          {
            "fieldPath": "uuid",
            "columnName": "uuid",
            "affinity": "TEXT",
            "notNull": true
          },
          {
            "fieldPath": "gameId",
            "columnName": "gameId",
            "affinity": "TEXT",
            "notNull": true
          },
          {
            "fieldPath": "nickname",
            "columnName": "nickname",
            "affinity": "TEXT",
            "notNull": true
          },
          {
            "fieldPath": "score",
            "columnName": "score",
            "affinity": "INTEGER",
            "notNull": true
          },
          {
            "fieldPath": "isModerator",
            "columnName": "isModerator",
            "affinity": "INTEGER",
            "notNull": true
          }
        ],
        "primaryKey": {
          "autoGenerate": false,
          "columnNames": [
            "uuid"
          ]
        },
        "indices": [],
        "foreignKeys": []
      },
      {
        "tableName": "answers",
        "createSql": "CREATE TABLE IF NOT EXISTS `${TABLE_NAME}` (`questionId` TEXT NOT NULL, `playerId` TEXT NOT NULL, `playerAnswer` TEXT NOT NULL, `isRight` INTEGER NOT NULL, PRIMARY KEY(`questionId`, `playerId`, `isRight`))",
        "fields": [
          {
            "fieldPath": "questionId",
            "columnName": "questionId",
            "affinity": "TEXT",
            "notNull": true
          },
          {
            "fieldPath": "playerId",
            "columnName": "playerId",
            "affinity": "TEXT",
            "notNull": true
          },
          {
            "fieldPath": "playerAnswer",
            "columnName": "playerAnswer",
            "affinity": "TEXT",
            "notNull": true
          },
          {
            "fieldPath": "isRight",
            "columnName": "isRight",
            "affinity": "INTEGER",
            "notNull": true
          }
        ],
        "primaryKey": {
          "autoGenerate": false,
          "columnNames": [
            "questionId",
            "playerId",
            "isRight"
          ]
        },
        "indices": [],
        "foreignKeys": []
      },
      {
        "tableName": "disputes",
        "createSql": "CREATE TABLE IF NOT EXISTS `${TABLE_NAME}` (`questionId` TEXT NOT NULL, `playerId` TEXT NOT NULL, `result` INTEGER NOT NULL, PRIMARY KEY(`questionId`, `playerId`))",
        "fields": [
          {
            "fieldPath": "questionId",
            "columnName": "questionId",
            "affinity": "TEXT",
            "notNull": true
          },
          {
            "fieldPath": "playerId",
            "columnName": "playerId",
            "affinity": "TEXT",
            "notNull": true
          },
          {
            "fieldPath": "result",
            "columnName": "result",
            "affinity": "INTEGER",
            "notNull": true
          }
        ],
        "primaryKey": {
          "autoGenerate": false,
          "columnNames": [
            "questionId",
            "playerId"
          ]
        },
        "indices": [],
        "foreignKeys": []
      }
    ],
    "views": [],
    "setupQueries": [
      "CREATE TABLE IF NOT EXISTS room_master_table (id INTEGER PRIMARY KEY,identity_hash TEXT)",
      "INSERT OR REPLACE INTO room_master_table (id,identity_hash) VALUES(42, '1aa538587828daa5ae860a845c7d701b')"
    ]
  }
}